Ejercicio de feedback - Feature engineering y clasificaciones
…
# A tibble: 5 × 7
  neighbors .metric .estimator  mean     n std_err .config         
      <int> <chr>   <chr>      <dbl> <int>   <dbl> <chr>           
1        50 roc_auc binary     0.713    10  0.0216 pre0_mod10_post0
2        44 roc_auc binary     0.708    10  0.0224 pre0_mod09_post0
3        39 roc_auc binary     0.703    10  0.0227 pre0_mod08_post0
4        34 roc_auc binary     0.698    10  0.0236 pre0_mod07_post0
5        29 roc_auc binary     0.692    10  0.0242 pre0_mod06_post0

collect_metrics(knn_tuned) %>%
  arrange(.metric, desc(mean)) %>%
  print(n = 20)

# A tibble: 40 × 7
   neighbors .metric  .estimator  mean     n std_err .config         
       <int> <chr>    <chr>      <dbl> <int>   <dbl> <chr>           
 1         3 accuracy binary     0.679    10  0.0140 pre0_mod01_post0
 2         8 accuracy binary     0.658    10  0.0146 pre0_mod02_post0
 3        13 accuracy binary     0.649    10  0.0151 pre0_mod03_post0
 4        18 accuracy binary     0.638    10  0.0151 pre0_mod04_post0
 5        44 accuracy binary     0.637    10  0.0130 pre0_mod09_post0
 6        34 accuracy binary     0.635    10  0.0141 pre0_mod07_post0
 7        39 accuracy binary     0.635    10  0.0134 pre0_mod08_post0
 8        23 accuracy binary     0.632    10  0.0155 pre0_mod05_post0
 9        50 accuracy binary     0.632    10  0.0126 pre0_mod10_post0
10        29 accuracy binary     0.631    10  0.0155 pre0_mod06_post0
11        50 roc_auc  binary     0.713    10  0.0216 pre0_mod10_post0
12        44 roc_auc  binary     0.708    10  0.0224 pre0_mod09_post0
13        39 roc_auc  binary     0.703    10  0.0227 pre0_mod08_post0
14        34 roc_auc  binary     0.698    10  0.0236 pre0_mod07_post0
15        29 roc_auc  binary     0.692    10  0.0242 pre0_mod06_post0
16        23 roc_auc  binary     0.681    10  0.0254 pre0_mod05_post0
17        18 roc_auc  binary     0.673    10  0.0261 pre0_mod04_post0
18        13 roc_auc  binary     0.661    10  0.0264 pre0_mod03_post0
19         8 roc_auc  binary     0.641    10  0.0277 pre0_mod02_post0
20         3 roc_auc  binary     0.611    10  0.0269 pre0_mod01_post0
# ℹ 20 more rows
…
